%YAML 1.1
%TAG !u! tag:unity3d.com,2011:
--- !u!114 &-5243926208133689470
MonoBehaviour:
  m_ObjectHideFlags: 11
  m_CorrespondingSourceObject: {fileID: 0}
  m_PrefabInstance: {fileID: 0}
  m_PrefabAsset: {fileID: 0}
  m_GameObject: {fileID: 0}
  m_Enabled: 1
  m_EditorHideFlags: 0
  m_Script: {fileID: 11500000, guid: d0353a89b1f911e48b9e16bdc9f2e058, type: 3}
  m_Name: 
  m_EditorClassIdentifier: 
  version: 1
--- !u!21 &2100000
Material:
  serializedVersion: 6
  m_ObjectHideFlags: 0
  m_CorrespondingSourceObject: {fileID: 0}
  m_PrefabInstance: {fileID: 0}
  m_PrefabAsset: {fileID: 0}
  m_Name: M_HexGrass_BendPath_60Deg
  m_Shader: {fileID: -6465566751694194690, guid: 8e6f0655874ebf647835968f6c2b695c,
    type: 3}
  m_ShaderKeywords: 
  m_LightmapFlags: 4
  m_EnableInstancingVariants: 0
  m_DoubleSidedGI: 1
  m_CustomRenderQueue: -1
  stringTagMap: {}
  disabledShaderPasses: []
  m_SavedProperties:
    serializedVersion: 3
    m_TexEnvs:
    - Texture2D_204B60AC:
        m_Texture: {fileID: 2800000, guid: 17a34c221254d1349ae18e700ba97e8b, type: 3}
        m_Scale: {x: 1, y: 1}
        m_Offset: {x: 0, y: 0}
    - Texture2D_3B1C1184:
        m_Texture: {fileID: 2800000, guid: 91a19bd3f7f8dab4e85cfcbadeec164c, type: 3}
        m_Scale: {x: 1, y: 1}
        m_Offset: {x: 0, y: 0}
    - Texture2D_3D20BA9C:
        m_Texture: {fileID: 2800000, guid: d54bd2e6fc49a3940a3732f14326d560, type: 3}
        m_Scale: {x: 1, y: 1}
        m_Offset: {x: 0, y: 0}
    - Texture2D_5891466F:
        m_Texture: {fileID: 2800000, guid: 52b233b154e316c469b441f4c2749291, type: 3}
        m_Scale: {x: 1, y: 1}
        m_Offset: {x: 0, y: 0}
    - Texture2D_743C72BE:
        m_Texture: {fileID: 2800000, guid: dd55daa7f1749c94fb18cd13d9dd4a2c, type: 3}
        m_Scale: {x: 1, y: 1}
        m_Offset: {x: 0, y: 0}
    - Texture2D_789E174A:
        m_Texture: {fileID: 2800000, guid: 9575f09bcc3efcf46ba33244063a1cbf, type: 3}
        m_Scale: {x: 1, y: 1}
        m_Offset: {x: 0, y: 0}
    - Texture2D_98798C5D:
        m_Texture: {fileID: 2800000, guid: f3f0cebb419f05d40bea240cfad8f25b, type: 3}
        m_Scale: {x: 1, y: 1}
        m_Offset: {x: 0, y: 0}
    - Texture2D_A1DF94A4:
        m_Texture: {fileID: 2800000, guid: 3881623f8b345e1499f206f12f34437c, type: 3}
        m_Scale: {x: 1, y: 1}
        m_Offset: {x: 0, y: 0}
    - Texture2D_C2C893CC:
        m_Texture: {fileID: 2800000, guid: 6eeec62646917ef4ca0913c551bfc176, type: 3}
        m_Scale: {x: 1, y: 1}
        m_Offset: {x: 0, y: 0}
    - Texture2D_CE165B3A:
        m_Texture: {fileID: 2800000, guid: 02ff002e6aa9b3044bb22b87b9a59578, type: 3}
        m_Scale: {x: 1, y: 1}
        m_Offset: {x: 0, y: 0}
    - Texture2D_CEDD7817:
        m_Texture: {fileID: 2800000, guid: 660056b72f34f024f9a89e85f35a4bb6, type: 3}
        m_Scale: {x: 1, y: 1}
        m_Offset: {x: 0, y: 0}
    - Texture2D_D9870384:
        m_Texture: {fileID: 2800000, guid: f54a4eccdde4a0348b7b412d73a29d58, type: 3}
        m_Scale: {x: 1, y: 1}
        m_Offset: {x: 0, y: 0}
    - Texture2D_EEE1401D:
        m_Texture: {fileID: 2800000, guid: 7dc48614a27f377439870c55f1630c70, type: 3}
        m_Scale: {x: 1, y: 1}
        m_Offset: {x: 0, y: 0}
    - Texture2D_FAECC37F:
        m_Texture: {fileID: 2800000, guid: a733840ce35ae1c44bbc52c3d7dae7de, type: 3}
        m_Scale: {x: 1, y: 1}
        m_Offset: {x: 0, y: 0}
    - _BaseMap:
        m_Texture: {fileID: 0}
        m_Scale: {x: 1, y: 1}
        m_Offset: {x: 0, y: 0}
    - _BumpMap:
        m_Texture: {fileID: 0}
        m_Scale: {x: 1, y: 1}
        m_Offset: {x: 0, y: 0}
    - _EmissionMap:
        m_Texture: {fileID: 0}
        m_Scale: {x: 1, y: 1}
        m_Offset: {x: 0, y: 0}
    - _MainTex:
        m_Texture: {fileID: 0}
        m_Scale: {x: 1, y: 1}
        m_Offset: {x: 0, y: 0}
    - _MetallicGlossMap:
        m_Texture: {fileID: 0}
        m_Scale: {x: 1, y: 1}
        m_Offset: {x: 0, y: 0}
    - _OcclusionMap:
        m_Texture: {fileID: 0}
        m_Scale: {x: 1, y: 1}
        m_Offset: {x: 0, y: 0}
    - _SampleTexture2D_174437A2_Texture_1:
        m_Texture: {fileID: 2800000, guid: f3f0cebb419f05d40bea240cfad8f25b, type: 3}
        m_Scale: {x: 1, y: 1}
        m_Offset: {x: 0, y: 0}
    - _SampleTexture2D_218663D9_Texture_1:
        m_Texture: {fileID: 2800000, guid: 9110a4ad0fad163409fd3426be7dfb55, type: 3}
        m_Scale: {x: 1, y: 1}
        m_Offset: {x: 0, y: 0}
    - _SampleTexture2D_26A20566_Texture_1:
        m_Texture: {fileID: 2800000, guid: a3f95a6f5c878b94ba5137ffd65da379, type: 3}
        m_Scale: {x: 1, y: 1}
        m_Offset: {x: 0, y: 0}
    - _SampleTexture2D_337A69D1_Texture_1:
        m_Texture: {fileID: 2800000, guid: 7d999e46f7b77ba45a8c1ffaef6dac87, type: 3}
        m_Scale: {x: 1, y: 1}
        m_Offset: {x: 0, y: 0}
    - _SampleTexture2D_420CFA20_Texture_1:
        m_Texture: {fileID: 2800000, guid: 660056b72f34f024f9a89e85f35a4bb6, type: 3}
        m_Scale: {x: 1, y: 1}
        m_Offset: {x: 0, y: 0}
    - _SampleTexture2D_5CEEB541_Texture_1:
        m_Texture: {fileID: 2800000, guid: 5bd0c74a2b7cbd245a83a753db6334be, type: 3}
        m_Scale: {x: 1, y: 1}
        m_Offset: {x: 0, y: 0}
    - _SampleTexture2D_7092A428_Texture_1:
        m_Texture: {fileID: 2800000, guid: 5d2e246d61d924443b4ad0d3cfe8c270, type: 3}
        m_Scale: {x: 1, y: 1}
        m_Offset: {x: 0, y: 0}
    - _SampleTexture2D_77B59767_Texture_1:
        m_Texture: {fileID: 2800000, guid: 91a19bd3f7f8dab4e85cfcbadeec164c, type: 3}
        m_Scale: {x: 1, y: 1}
        m_Offset: {x: 0, y: 0}
    - _SampleTexture2D_7DB68EC4_Texture_1:
        m_Texture: {fileID: 2800000, guid: a733840ce35ae1c44bbc52c3d7dae7de, type: 3}
        m_Scale: {x: 1, y: 1}
        m_Offset: {x: 0, y: 0}
    - _SampleTexture2D_7EDDDD82_Texture_1:
        m_Texture: {fileID: 2800000, guid: 02ff002e6aa9b3044bb22b87b9a59578, type: 3}
        m_Scale: {x: 1, y: 1}
        m_Offset: {x: 0, y: 0}
    - _SampleTexture2D_8AC47095_Texture_1:
        m_Texture: {fileID: 2800000, guid: c1336798a57785f4e8de548cc002715d, type: 3}
        m_Scale: {x: 1, y: 1}
        m_Offset: {x: 0, y: 0}
    - _SampleTexture2D_8CD20CFF_Texture_1:
        m_Texture: {fileID: 2800000, guid: 8490157df628e3046883eca7a93f59da, type: 3}
        m_Scale: {x: 1, y: 1}
        m_Offset: {x: 0, y: 0}
    - _SampleTexture2D_B06DF46B_Texture_1:
        m_Texture: {fileID: 2800000, guid: 7dc48614a27f377439870c55f1630c70, type: 3}
        m_Scale: {x: 1, y: 1}
        m_Offset: {x: 0, y: 0}
    - _SampleTexture2D_CF422D65_Texture_1:
        m_Texture: {fileID: 2800000, guid: 7e13607ca5bb50e47a8f61593e2c5051, type: 3}
        m_Scale: {x: 1, y: 1}
        m_Offset: {x: 0, y: 0}
    - _SampleTexture2D_E2E582D7_Texture_1:
        m_Texture: {fileID: 2800000, guid: d165cbfbd14975c47bdeb223d2d15bbd, type: 3}
        m_Scale: {x: 1, y: 1}
        m_Offset: {x: 0, y: 0}
    - _SampleTexture2D_F02458E9_Texture_1:
        m_Texture: {fileID: 2800000, guid: f54a4eccdde4a0348b7b412d73a29d58, type: 3}
        m_Scale: {x: 1, y: 1}
        m_Offset: {x: 0, y: 0}
    - _SampleTexture2D_F9391322_Texture_1:
        m_Texture: {fileID: 2800000, guid: 52b233b154e316c469b441f4c2749291, type: 3}
        m_Scale: {x: 1, y: 1}
        m_Offset: {x: 0, y: 0}
    - _SpecGlossMap:
        m_Texture: {fileID: 0}
        m_Scale: {x: 1, y: 1}
        m_Offset: {x: 0, y: 0}
    m_Floats:
    - Boolean_357337BD: 0
    - Boolean_9B0307F6: 1
    - ENABLEWORLDSPACEGRASS: 0
    - Vector1_1690D890: 0.31
    - Vector1_2D43FE9E: 0.748
    - Vector1_3B67E000: 0.224
    - Vector1_434A9098: 0.45
    - Vector1_4804A89: 0.2961046
    - Vector1_7AD5FD2F: 0.356
    - Vector1_8E9D682E: 0.156
    - Vector1_CE423BE8: -0.68
    - Vector1_D1072B25: 0.02927459
    - Vector1_F9FFF076: 0.1
    - _AlphaClip: 0
    - _Blend: 0
    - _BumpScale: 1
    - _Cull: 2
    - _Cutoff: 0.5
    - _DstBlend: 0
    - _EnvironmentReflections: 1
    - _GlossMapScale: 0
    - _Glossiness: 0
    - _GlossyReflections: 0
    - _Metallic: 0
    - _OcclusionStrength: 1
    - _QueueOffset: 0
    - _ReceiveShadows: 1
    - _Smoothness: 0.5
    - _SmoothnessTextureChannel: 0
    - _SpecularHighlights: 1
    - _SrcBlend: 1
    - _Surface: 0
    - _WorkflowMode: 1
    - _ZWrite: 1
    m_Colors:
    - Color_867689C8: {r: 0.61960787, g: 0.6320754, b: 0.26666668, a: 1}
    - _BaseColor: {r: 1, g: 1, b: 1, a: 1}
    - _Color: {r: 1, g: 1, b: 1, a: 1}
    - _EmissionColor: {r: 0, g: 0, b: 0, a: 1}
    - _SpecColor: {r: 0.19999996, g: 0.19999996, b: 0.19999996, a: 1}
